[
    {
        "model": "auth.group",
        "fields": {"name": "Students", "permissions": []},
        "pk": 1
    },
    {
        "model": "auth.group",
        "fields": {"name": "Instructors", "permissions": []},
        "pk": 4
    },
    {
        "pk": 1,
        "model": "auth.user",
        "fields": {
            "email": "",
            "date_joined": "2014-06-11T22:38:41.073",
            "user_permissions": [],
            "username": "admin@example.com",
            "is_superuser": true,
            "first_name": "",
            "last_login": "2014-06-20T18:49:37.951",
            "last_name": "",
            "password": "pbkdf2_sha256$12000$kn5hhSpMJoVW$7xy2zTeXnA4PwpWDdrSeb1NjkfwRtNaAgdvD8c4YuZs=",
            "is_staff": true,
            "is_active": true,
            "groups": [4]
        }
    }
]
